{
    "success":  true,
    "data":  {
                 "workflows":  [
                                   {
                                       "id":  "cd9dd80c-3a78-4b12-ae67-521380c88a87",
                                       "title":  "333",
                                       "description":  "",
                                       "author":  "FENGsir",
                                       "authorId":  "7bcab023-5778-4fdb-8e4c-cd431247567f",
                                       "price":  11,
                                       "isVip":  1,
                                       "isFree":  0,
                                       "cover":  "/uploads/workflows/65/images/cover-1758007128486-z9lgv1.jpg",
                                       "tags":  [

                                                ],
                                       "workflowCount":  1,
                                       "downloadCount":  0,
                                       "rating":  0,
                                       "ratingCount":  0,
                                       "content":  "{}",
                                       "createdAt":  1757949145733,
                                       "updatedAt":  1758007128489,
                                       "previewVideo":  "/uploads/workflows/65/videos/-AIGC-1758007125696-pigl8y.mp4",
                                       "demoVideo":  "",
                                       "gallery":  [

                                                   ],
                                       "shortDescription":  "333",
                                       "features":  [

                                                    ],
                                       "requirements":  "",
                                       "changelog":  [

                                                     ],
                                       "category":  "books",
                                       "subcategory":  "",
                                       "status":  "published",
                                       "sortOrder":  1000,
                                       "version":  "1.0.0",
                                       "compatibility":  {

                                                         },
                                       "dependencies":  [

                                                        ],
                                       "seoTitle":  "",
                                       "seoDescription":  "",
                                       "seoKeywords":  [

                                                       ],
                                       "isHot":  1,
                                       "isNew":  1,
                                       "originalPrice":  null,
                                       "publishedAt":  1757949145733,
                                       "authorAvatar":  "",
                                       "code":  65,
                                       "attachments":  [
                                                           "/uploads/workflows/65/files/AnLinkSetup-1757940556104-x4p3zh.zip"
                                                       ],
                                       "isDailyRecommended":  0,
                                       "viewCount":  143,
                                       "favoriteCount":  0
                                   },
                                   {
                                       "id":  "0ca38ec1-8875-44cf-ab26-94548795f78b",
                                       "title":  "1 副本 副本 副本 副本 副本 副本 副本 副本 副本 副本",
                                       "description":  "",
                                       "author":  "FENGsir",
                                       "authorId":  "7bcab023-5778-4fdb-8e4c-cd431247567f",
                                       "price":  11,
                                       "isVip":  1,
                                       "isFree":  0,
                                       "cover":  "/uploads/workflows/64/images/cover-1757940556983-35dmun.jpg",
                                       "tags":  [

                                                ],
                                       "workflowCount":  1,
                                       "downloadCount":  0,
                                       "rating":  0,
                                       "ratingCount":  0,
                                       "content":  "{}",
                                       "createdAt":  1757949145364,
                                       "updatedAt":  1757949145364,
                                       "previewVideo":  "/uploads/workflows/64/videos/--1757940552872-6j9tfi.mp4",
                                       "demoVideo":  "",
                                       "gallery":  [

                                                   ],
                                       "shortDescription":  "11",
                                       "features":  [

                                                    ],
                                       "requirements":  "",
                                       "changelog":  [

                                                     ],
                                       "category":  "books",
                                       "subcategory":  "",
                                       "status":  "published",
                                       "sortOrder":  1000,
                                       "version":  "1.0.0",
                                       "compatibility":  {

                                                         },
                                       "dependencies":  [

                                                        ],
                                       "seoTitle":  "",
                                       "seoDescription":  "",
                                       "seoKeywords":  [

                                                       ],
                                       "isHot":  1,
                                       "isNew":  1,
                                       "originalPrice":  null,
                                       "publishedAt":  1757949145364,
                                       "authorAvatar":  "",
                                       "code":  64,
                                       "attachments":  [
                                                           "/uploads/workflows/64/files/AnLinkSetup-1757940556104-x4p3zh.zip"
                                                       ],
                                       "isDailyRecommended":  0,
                                       "viewCount":  8,
                                       "favoriteCount":  0
                                   },
                                   {
                                       "id":  "adffcc19-8ea8-48cd-9034-ecf1f9b54aae",
                                       "title":  "1 副本 副本 副本 副本 副本 副本 副本 副本 副本",
                                       "description":  "",
                                       "author":  "FENGsir",
                                       "authorId":  "7bcab023-5778-4fdb-8e4c-cd431247567f",
                                       "price":  11,
                                       "isVip":  1,
                                       "isFree":  0,
                                       "cover":  "/uploads/workflows/63/images/cover-1757940556983-35dmun.jpg",
                                       "tags":  [

                                                ],
                                       "workflowCount":  1,
                                       "downloadCount":  0,
                                       "rating":  0,
                                       "ratingCount":  0,
                                       "content":  "{}",
                                       "createdAt":  1757949145007,
                                       "updatedAt":  1757949145007,
                                       "previewVideo":  "/uploads/workflows/63/videos/--1757940552872-6j9tfi.mp4",
                                       "demoVideo":  "",
                                       "gallery":  [

                                                   ],
                                       "shortDescription":  "11",
                                       "features":  [

                                                    ],
                                       "requirements":  "",
                                       "changelog":  [

                                                     ],
                                       "category":  "books",
                                       "subcategory":  "",
                                       "status":  "published",
                                       "sortOrder":  1000,
                                       "version":  "1.0.0",
                                       "compatibility":  {

                                                         },
                                       "dependencies":  [

                                                        ],
                                       "seoTitle":  "",
                                       "seoDescription":  "",
                                       "seoKeywords":  [

                                                       ],
                                       "isHot":  1,
                                       "isNew":  1,
                                       "originalPrice":  null,
                                       "publishedAt":  1757949145007,
                                       "authorAvatar":  "",
                                       "code":  63,
                                       "attachments":  [
                                                           "/uploads/workflows/63/files/AnLinkSetup-1757940556104-x4p3zh.zip"
                                                       ],
                                       "isDailyRecommended":  0,
                                       "viewCount":  3,
                                       "favoriteCount":  0
                                   },
                                   {
                                       "id":  "c0ff1578-41fa-4c69-9f5f-0f7387c9a453",
                                       "title":  "1 副本 副本 副本 副本 副本 副本 副本 副本",
                                       "description":  "",
                                       "author":  "FENGsir",
                                       "authorId":  "7bcab023-5778-4fdb-8e4c-cd431247567f",
                                       "price":  11,
                                       "isVip":  1,
                                       "isFree":  0,
                                       "cover":  "/uploads/workflows/62/images/cover-1757940556983-35dmun.jpg",
                                       "tags":  [

                                                ],
                                       "workflowCount":  1,
                                       "downloadCount":  0,
                                       "rating":  0,
                                       "ratingCount":  0,
                                       "content":  "{}",
                                       "createdAt":  1757949143240,
                                       "updatedAt":  1757949143240,
                                       "previewVideo":  "/uploads/workflows/62/videos/--1757940552872-6j9tfi.mp4",
                                       "demoVideo":  "",
                                       "gallery":  [

                                                   ],
                                       "shortDescription":  "11",
                                       "features":  [

                                                    ],
                                       "requirements":  "",
                                       "changelog":  [

                                                     ],
                                       "category":  "books",
                                       "subcategory":  "",
                                       "status":  "published",
                                       "sortOrder":  1000,
                                       "version":  "1.0.0",
                                       "compatibility":  {

                                                         },
                                       "dependencies":  [

                                                        ],
                                       "seoTitle":  "",
                                       "seoDescription":  "",
                                       "seoKeywords":  [

                                                       ],
                                       "isHot":  1,
                                       "isNew":  1,
                                       "originalPrice":  null,
                                       "publishedAt":  1757949143240,
                                       "authorAvatar":  "",
                                       "code":  62,
                                       "attachments":  [
                                                           "/uploads/workflows/62/files/AnLinkSetup-1757940556104-x4p3zh.zip"
                                                       ],
                                       "isDailyRecommended":  0,
                                       "viewCount":  0,
                                       "favoriteCount":  0
                                   },
                                   {
                                       "id":  "e9202a84-b7ad-4634-8d2b-9226f1f08b7d",
                                       "title":  "1 副本 副本 副本 副本 副本 副本 副本",
                                       "description":  "",
                                       "author":  "FENGsir",
                                       "authorId":  "7bcab023-5778-4fdb-8e4c-cd431247567f",
                                       "price":  11,
                                       "isVip":  1,
                                       "isFree":  0,
                                       "cover":  "/uploads/workflows/61/images/cover-1757940556983-35dmun.jpg",
                                       "tags":  [

                                                ],
                                       "workflowCount":  1,
                                       "downloadCount":  0,
                                       "rating":  0,
                                       "ratingCount":  0,
                                       "content":  "{}",
                                       "createdAt":  1757949142136,
                                       "updatedAt":  1757949142136,
                                       "previewVideo":  "/uploads/workflows/61/videos/--1757940552872-6j9tfi.mp4",
                                       "demoVideo":  "",
                                       "gallery":  [

                                                   ],
                                       "shortDescription":  "11",
                                       "features":  [

                                                    ],
                                       "requirements":  "",
                                       "changelog":  [

                                                     ],
                                       "category":  "books",
                                       "subcategory":  "",
                                       "status":  "published",
                                       "sortOrder":  1000,
                                       "version":  "1.0.0",
                                       "compatibility":  {

                                                         },
                                       "dependencies":  [

                                                        ],
                                       "seoTitle":  "",
                                       "seoDescription":  "",
                                       "seoKeywords":  [

                                                       ],
                                       "isHot":  1,
                                       "isNew":  1,
                                       "originalPrice":  null,
                                       "publishedAt":  1757949142136,
                                       "authorAvatar":  "",
                                       "code":  61,
                                       "attachments":  [
                                                           "/uploads/workflows/61/files/AnLinkSetup-1757940556104-x4p3zh.zip"
                                                       ],
                                       "isDailyRecommended":  0,
                                       "viewCount":  4,
                                       "favoriteCount":  0
                                   }
                               ],
                 "pagination":  {
                                    "page":  1,
                                    "limit":  5,
                                    "total":  12,
                                    "totalPages":  3,
                                    "hasNext":  true,
                                    "hasPrev":  false
                                }
             }
}

